// Jest Snapshot v1, https://goo.gl/fbAQLP

exports[`Document component 1`] = `"<p>{}</p>"`;

exports[`Document component 2`] = `"<p>{&quot;data&quot;:&quot;123&quot;}</p>"`;

exports[`Document component 3`] = `"<p>{&quot;data&quot;:&quot;123&quot;}</p>"`;

exports[`Document component 4`] = `"<p>{&quot;data&quot;:&quot;456&quot;}</p>"`;
